{
  "data": [
    {
      "userId": 2,
      "creationDate": "2019-02-26T23:00:00.000Z",
      "fromDate": "2019-02-26T23:00:00.000Z",
      "toDate": "2019-02-27T23:00:00.000Z",
      "fromTime": "08:00",
      "toTime": "16:00",
      "absenceCategory": "doctor",
      "additionalInfo": "Got flu"
    },
    {
      "userId": 2,
      "creationDate": "2019-02-26T23:00:00.000Z",
      "fromDate": "2019-03-03T23:00:00.000Z",
      "toDate": "2019-03-06T23:00:00.000Z",
      "fromTime": "10:00",
      "toTime": "16:00",
      "absenceCategory": "personal",
      "additionalInfo": "Conference"
    },
    {
      "userId": 1,
      "fromDate": "2019-03-02T23:00:00.000Z",
      "creationDate": "2019-02-26T23:00:00.000Z",
      "toDate": "2019-03-02T23:00:00.000Z",
      "fromTime": "12:00",
      "toTime": "16:00",
      "absenceCategory": "personal",
      "additionalInfo": "Wedding"
    },
    {
      "userId": 1,
      "creationDate": "2019-02-26T23:00:00.000Z",
      "fromDate": "2019-03-09T23:00:00.000Z",
      "toDate": "2019-03-11T23:00:00.000Z",
      "fromTime": "08:00",
      "toTime": "12:59",
      "absenceCategory": "personal",
      "additionalInfo": "School"
    },
    {
      "userId": 3,
      "creationDate": "2019-02-27T19:34:58.411Z",
      "fromDate": "2019-03-16T23:00:00.000Z",
      "toDate": "2019-03-17T23:00:00.000Z",
      "fromTime": "12:00",
      "toTime": "10:00",
      "absenceCategory": "work-home",
      "additionalInfo": ""
    },
    {
      "userId": 1,
      "creationDate": "2019-02-28T12:20:43.376Z",
      "fromDate": "2019-03-24T23:00:00.000Z",
      "toDate": "2019-03-25T23:00:00.000Z",
      "fromTime": "10:00",
      "toTime": "12:00",
      "absenceCategory": "doctor",
      "additionalInfo": "Hospital visit"
    },
    {
      "userId": 4,
      "creationDate": "2019-02-28T13:36:49.082Z",
      "fromDate": "2019-03-20T23:00:00.000Z",
      "toDate": "2019-03-20T23:00:00.000Z",
      "fromTime": "13:30",
      "toTime": "16:00",
      "absenceCategory": "personal",
      "additionalInfo": "My son's graduation"
    },
    {
      "userId": 5,
      "creationDate": "2019-02-28T13:37:45.300Z",
      "fromDate": "2019-03-11T23:00:00.000Z",
      "toDate": "2019-03-12T23:00:00.000Z",
      "fromTime": "14:00",
      "toTime": "16:00",
      "absenceCategory": "work-home",
      "additionalInfo": "Personal preference"
    }
  ]
}